[gd_resource type="AtlasTexture" load_steps=2 format=2]

[ext_resource path="res://img/shaun_head.png" type="Texture" id=1]

[resource]
flags = 3
atlas = ExtResource( 1 )
region = Rect2( 0, 0, 48, 64 )
