[gd_scene load_steps=3 format=2]

[ext_resource path="res://database/items/viewmodels/hands.gd" type="Script" id=1]
[ext_resource path="res://img/hands.png" type="Texture" id=2]

[node name="Hands" type="Sprite3D"]
transform = Transform( 1.62859, 0, 0, 0, 0.517836, 1.54407, 0, -1.54407, 0.517836, 0, -0.0760498, -0.604054 )
offset = Vector2( 0, -9.979 )
pixel_size = 0.016
shaded = true
double_sided = false
texture = ExtResource( 2 )
vframes = 6
hframes = 3
region_enabled = true
region_rect = Rect2( 0, 0.126, 96, 96 )
script = ExtResource( 1 )

[node name="cast" type="RayCast" parent="."]
transform = Transform( 1, 0, 0, 0, -0.473552, -0.880767, 0, 0.880767, -0.473552, -0.00896336, 0.0387984, 0.00267445 )
enabled = true
cast_to = Vector3( 0, -1.917, 0 )
collision_mask = 513
