[gd_scene load_steps=3 format=2]

[ext_resource path="res://shotgun.tres" type="Texture" id=1]
[ext_resource path="res://scripts/weapons/shotgun.gd" type="Script" id=2]

[node name="Shotgun" type="Sprite3D"]
transform = Transform( 1, 0, 0, 0, 0.227943, 0.973675, 0, -0.973675, 0.227943, 0, -0.103001, -0.457627 )
offset = Vector2( 0, 3.295 )
shaded = true
double_sided = false
texture = ExtResource( 1 )
vframes = 4
hframes = 4
script = ExtResource( 2 )

[node name="muzzle" type="OmniLight" parent="."]
transform = Transform( 1, 0, 0, 0, 1, 0, 0, 0, 1, 0.00207639, 0.0819686, -0.11869 )
visible = false
light_color = Color( 0.85098, 0.639216, 0.45098, 1 )
light_energy = 0.84
light_indirect_energy = 1.35
light_specular = 0.11
shadow_enabled = true
omni_range = 50.1647

[node name="muzzle2" type="OmniLight" parent="muzzle"]
transform = Transform( 1, 0, 0, 0, 1, 0, 0, 0, 1, 0, -0.0688341, 0.131187 )
light_color = Color( 0.976471, 0.945098, 0.619608, 1 )
light_energy = 6.01
light_indirect_energy = 4.82
light_specular = 0.11
shadow_enabled = true
omni_range = 4.69901

[node name="Ejection" type="Spatial" parent="."]
transform = Transform( 1, 0, 0, 0, 1, 0, 0, 0, 1, 0.436435, -0.282747, 0.0567632 )
