[gd_scene load_steps=3 format=2]

[ext_resource path="res://mesh/tree_01.glb" type="PackedScene" id=1]

[sub_resource type="CapsuleShape" id=1]
radius = 0.956207
height = 4.34614

[node name="tree" type="StaticBody"]

[node name="tree_01" parent="." instance=ExtResource( 1 )]
transform = Transform( 3.2741, 0, 0, 0, 4.5501, 0, 0, 0, 3.2741, 0, 0, 0 )

[node name="CollisionShape" type="CollisionShape" parent="."]
transform = Transform( 1, 0, 0, 0, -4.37114e-08, 1, 0, -1, -4.37114e-08, -0.287451, 3.42098, 0.223109 )
shape = SubResource( 1 )
