[gd_scene load_steps=3 format=2]

[ext_resource path="res://mesh/tree_02.glb" type="PackedScene" id=1]

[sub_resource type="CapsuleShape" id=1]
radius = 1.29344
height = 5.0

[node name="tree" type="StaticBody"]

[node name="tree_02" parent="." instance=ExtResource( 1 )]
transform = Transform( 5.60483, 0, 0, 0, 5.60483, 0, 0, 0, 5.60483, 0, 0, 0 )

[node name="CollisionShape" type="CollisionShape" parent="."]
transform = Transform( 1, 0, 0, 0, -4.37114e-08, 1, 0, -1, -4.37114e-08, -0.845043, 4.23423, 0 )
shape = SubResource( 1 )
