[gd_scene load_steps=7 format=2]

[ext_resource path="res://client/other_player.gd" type="Script" id=1]
[ext_resource path="res://materials/character/shaun_torso.tres" type="Texture" id=2]
[ext_resource path="res://materials/character/shaun_head.tres" type="Texture" id=3]
[ext_resource path="res://materials/character/shaun_legs.tres" type="Texture" id=4]
[ext_resource path="res://materials/character/shaun_arms.tres" type="Texture" id=5]

[sub_resource type="CapsuleShape" id=1]
radius = 0.334077
height = 1.05745

[node name="Spatial" type="KinematicBody"]
transform = Transform( 1.86182, 0, 0, 0, 1.86182, 0, 0, 0, 1.86182, 0, 0, 0 )
collision_layer = 32
collision_mask = 35
script = ExtResource( 1 )

[node name="CollisionShape" type="CollisionShape" parent="."]
transform = Transform( 1, 0, 0, 0, -1.62921e-07, 1, 0, -1, -1.62921e-07, 0, 0.875338, 0 )
shape = SubResource( 1 )

[node name="Shot Light" type="OmniLight" parent="."]
transform = Transform( 1, 0, 0, 0, 1, 0, 0, 0, 1, 0, 1.61578, -1.19626 )
visible = false
light_color = Color( 0.839216, 0.721569, 0.517647, 1 )
omni_range = 19.5874

[node name="Torso" type="Sprite3D" parent="."]
offset = Vector2( 0, 13 )
pixel_size = 0.0574
billboard = 2
shaded = true
alpha_cut = 2
texture = ExtResource( 2 )
vframes = 5
hframes = 4

[node name="Head" type="Sprite3D" parent="Torso"]
transform = Transform( 1, 0, 0, 0, 1, 0, 0, 0, 1, 0, 0, 0.0169385 )
offset = Vector2( 0, 23 )
pixel_size = 0.0574
billboard = 2
shaded = true
alpha_cut = 2
texture = ExtResource( 3 )
vframes = 4
hframes = 3

[node name="Arms" type="Sprite3D" parent="Torso"]
transform = Transform( 1, 0, 0, 0, 1, 0, 0, 0, 1, 0.000144192, 0, 0.0187155 )
offset = Vector2( 0, 13 )
pixel_size = 0.0574
billboard = 2
shaded = true
texture = ExtResource( 5 )
vframes = 5
hframes = 4

[node name="Legs" type="Sprite3D" parent="Torso"]
transform = Transform( 1, 0, 0, 0, 1, 0, 0, 0, 1, -0.003, 0, -0.03 )
offset = Vector2( 0, 8 )
pixel_size = 0.0574
billboard = 2
shaded = true
texture = ExtResource( 4 )
vframes = 5
hframes = 5
