[gd_scene load_steps=5 format=2]

[ext_resource path="res://materials/items.tres" type="Texture" id=1]
[ext_resource path="res://database/items/pickup.gd" type="Script" id=2]

[sub_resource type="BoxShape" id=1]
extents = Vector3( 0.198079, 0.197271, 0.315175 )

[sub_resource type="BoxShape" id=2]
extents = Vector3( 1.89915, 1.47417, 1.6647 )

[node name="shotgun_shell" type="RigidBody"]
collision_layer = 67
collision_mask = 67

[node name="CollisionShape2" type="CollisionShape" parent="."]
transform = Transform( 1, 0, 0, 0, 1, 0, 0, 0, 1, 0, 0.180411, 0 )
shape = SubResource( 1 )

[node name="pickup" type="KinematicBody" parent="."]
collision_layer = 512
collision_mask = 512
script = ExtResource( 2 )
front_frame = 11
back_frame = 8
left_frame = 10
right_frame = 9
grants_item = "12ga_buck"
root = "../"

[node name="CollisionShape" type="CollisionShape" parent="pickup"]
transform = Transform( 1, 0, 0, 0, 1, 0, 0, 0, 1, 0, 0.173429, 0 )
shape = SubResource( 2 )

[node name="Sprite" type="Sprite3D" parent="pickup"]
transform = Transform( 1.63315, 0, 0, 0, 1.63315, 0, 0, 0, 1.63315, 0, 0.173663, 0 )
billboard = 1
shaded = true
texture = ExtResource( 1 )
vframes = 4
hframes = 3
frame = 11
