[gd_scene load_steps=3 format=2]

[ext_resource path="res://mesh/arrow_button.glb" type="PackedScene" id=1]

[sub_resource type="BoxShape" id=1]
extents = Vector3( 0.213686, 0.215936, 0.224163 )

[node name="arrow_button" type="KinematicBody"]
collision_layer = 513
collision_mask = 513

[node name="arrow_button" parent="." instance=ExtResource( 1 )]

[node name="CollisionShape" type="CollisionShape" parent="."]
transform = Transform( 1, 0, 0, 0, 1, 0, 0, 0, 1, 0, 0, 0.153632 )
shape = SubResource( 1 )
