[gd_resource type="AtlasTexture" load_steps=2 format=2]

[ext_resource path="res://img/character_icons.png" type="Texture" id=1]

[resource]
flags = 4
atlas = ExtResource( 1 )
region = Rect2( 16, 16, 16, 16 )
