[gd_scene load_steps=2 format=2]

[ext_resource path="res://client/map/map.gd" type="Script" id=3]

[node name="map" type="Spatial"]
script = ExtResource( 3 )

[node name="players" type="Spatial" parent="."]

[node name="zombies" type="Spatial" parent="."]

[node name="items" type="Spatial" parent="."]

[node name="OmniLight" type="OmniLight" parent="."]
transform = Transform( 1, 0, 0, 0, 1, 0, 0, 0, 1, 0, 2.48975, 0 )
omni_range = 16.3756

[node name="chunks" type="Spatial" parent="."]
